Average humidity is 71.078125
Average wind speed is 17.968678919635412
Average temperature is 4.399330706864583
The max temp was registered Sat Mar 13 00:00:00 MSK 2021
The max wind speed was registered Sat Mar 13 00:00:00 MSK 2021
The min humid was registered Sat Mar 20 23:00:00 MSK 2021
The most frequently wind direction is NORTH
